…
```r
daily_pattern <- activity %>%
    group_by(interval) %>% summarize("Average"=mean(steps, na.rm = TRUE))

daily_max <- filter(daily_pattern, Average == max(Average))

daily_pattern$interval <- as_datetime(daily_pattern$interval, tz = "UTC", format = "%H%M")
ungroup(daily_pattern)
```

```
## # A tibble: 288 x 2
##    interval            Average
##    <S3: POSIXlt>         <dbl>
##  1 2019-01-12 00:00:00  1.72  
##  2 2019-01-12 00:05:00  0.340 
##  3 2019-01-12 00:10:00  0.132 
##  4 2019-01-12 00:15:00  0.151 
##  5 2019-01-12 00:20:00  0.0755
##  6 2019-01-12 00:25:00  2.09  
##  7 2019-01-12 00:30:00  0.528 
##  8 2019-01-12 00:35:00  0.868 
##  9 2019-01-12 00:40:00  0     
## 10 2019-01-12 00:45:00  1.47  
## # ... with 278 more rows
```
…
